(kicad_sch (version 20211123) (generator eeschema)

  (uuid e63e39d7-6ac0-4ffd-8aa3-1841a4541b55)

  (paper "A4")

  (title_block
    (title "ESP-Home-Fuse-Box-Light-Controller")
    (date "${git_date}")
    (rev "${git_version}")
    (company "Open Hardware")
    (comment 1 "Fabian Pflug")
  )

  (lib_symbols
    (symbol "Graphic:Logo_Open_Hardware_Large" (pin_names (offset 1.016)) (in_bom yes) (on_board yes)
      (property "Reference" "#LOGO" (id 0) (at 0 12.7 0)
        (effects (font (size 1.27 1.27)) hide)
      )
      (property "Value" "Logo_Open_Hardware_Large" (id 1) (at 0 -10.16 0)
        (effects (font (size 1.27 1.27)) hide)
      )
      (property "Footprint" "" (id 2) (at 0 0 0)
        (effects (font (size 1.27 1.27)) hide)
      )
      (property "Datasheet" "~" (id 3) (at 0 0 0)
        (effects (font (size 1.27 1.27)) hide)
      )
      (property "ki_keywords" "Logo" (id 4) (at 0 0 0)
        (effects (font (size 1.27 1.27)) hide)
      )
      (property "ki_description" "Open Hardware logo, large" (id 5) (at 0 0 0)
        (effects (font (size 1.27 1.27)) hide)
      )
      (symbol "Logo_Open_Hardware_Large_1_1"
        (polyline
          (pts
            (xy 6.731 -8.7122)
            (xy 6.6294 -8.6614)
            (xy 6.35 -8.4836)
            (xy 5.9944 -8.255)
            (xy 5.5372 -7.9502)
            (xy 5.1054 -7.6454)
            (xy 4.7498 -7.4168)
            (xy 4.4958 -7.239)
            (xy 4.3942 -7.1882)
            (xy 4.318 -7.2136)
            (xy 4.1148 -7.3152)
            (xy 3.81 -7.4676)
            (xy 3.6322 -7.5692)
            (xy 3.3528 -7.6708)
            (xy 3.2258 -7.6962)
            (xy 3.2004 -7.6708)
            (xy 3.0988 -7.4676)
            (xy 2.9464 -7.0866)
            (xy 2.7178 -6.604)
            (xy 2.4892 -6.0452)
            (xy 2.2352 -5.4356)
            (xy 1.9558 -4.826)
            (xy 1.7272 -4.2164)
            (xy 1.4986 -3.683)
            (xy 1.3208 -3.2512)
            (xy 1.2192 -2.9464)
            (xy 1.1684 -2.8194)
            (xy 1.1938 -2.794)
            (xy 1.3208 -2.667)
            (xy 1.5748 -2.4892)
            (xy 2.0828 -2.0574)
            (xy 2.6162 -1.397)
            (xy 2.921 -0.6604)
            (xy 3.048 0.1524)
            (xy 2.9464 0.9144)
            (xy 2.6416 1.6256)
            (xy 2.1336 2.286)
            (xy 1.524 2.7686)
            (xy 0.8128 3.0734)
            (xy 0 3.175)
            (xy -0.762 3.0988)
            (xy -1.4986 2.794)
            (xy -2.159 2.286)
            (xy -2.4384 1.9812)
            (xy -2.8194 1.3208)
            (xy -3.048 0.6096)
            (xy -3.0734 0.4318)
            (xy -3.0226 -0.3556)
            (xy -2.794 -1.0922)
            (xy -2.3876 -1.7526)
            (xy -1.8288 -2.3114)
            (xy -1.7526 -2.3622)
            (xy -1.4732 -2.5654)
            (xy -1.2954 -2.6924)
            (xy -1.1684 -2.8194)
            (xy -2.159 -5.207)
            (xy -2.3114 -5.588)
            (xy -2.5908 -6.2484)
            (xy -2.8194 -6.8072)
            (xy -3.0226 -7.2644)
            (xy -3.1496 -7.5692)
            (xy -3.2258 -7.6708)
            (xy -3.2258 -7.6962)
            (xy -3.302 -7.6962)
            (xy -3.4798 -7.6454)
            (xy -3.8354 -7.4676)
            (xy -4.0386 -7.366)
            (xy -4.2926 -7.239)
            (xy -4.4196 -7.1882)
            (xy -4.5212 -7.239)
            (xy -4.7498 -7.3914)
            (xy -5.1054 -7.6454)
            (xy -5.5372 -7.9248)
            (xy -5.9436 -8.2042)
            (xy -6.3246 -8.4582)
            (xy -6.604 -8.636)
            (xy -6.731 -8.7122)
            (xy -6.7564 -8.7122)
            (xy -6.858 -8.636)
            (xy -7.0866 -8.4582)
            (xy -7.4168 -8.1534)
            (xy -7.874 -7.6962)
            (xy -7.9502 -7.62)
            (xy -8.3312 -7.239)
            (xy -8.636 -6.9088)
            (xy -8.8392 -6.6802)
            (xy -8.9154 -6.5786)
            (xy -8.9154 -6.5786)
            (xy -8.8392 -6.4516)
            (xy -8.6614 -6.1722)
            (xy -8.4328 -5.7912)
            (xy -8.128 -5.3594)
            (xy -7.3152 -4.191)
            (xy -7.7724 -3.0988)
            (xy -7.8994 -2.7686)
            (xy -8.0772 -2.3622)
            (xy -8.2042 -2.0828)
            (xy -8.255 -1.9558)
            (xy -8.382 -1.905)
            (xy -8.6614 -1.8542)
            (xy -9.0932 -1.7526)
            (xy -9.6266 -1.651)
            (xy -10.1092 -1.5748)
            (xy -10.541 -1.4732)
            (xy -10.8712 -1.4224)
            (xy -11.0236 -1.397)
            (xy -11.049 -1.3716)
            (xy -11.0744 -1.2954)
            (xy -11.0998 -1.143)
            (xy -11.0998 -0.889)
            (xy -11.1252 -0.4572)
            (xy -11.1252 0.1524)
            (xy -11.1252 0.2286)
            (xy -11.0998 0.8128)
            (xy -11.0998 1.27)
            (xy -11.0744 1.5494)
            (xy -11.0744 1.6764)
            (xy -11.0744 1.6764)
            (xy -10.922 1.7018)
            (xy -10.6172 1.778)
            (xy -10.16 1.8542)
            (xy -9.652 1.9558)
            (xy -9.6012 1.9812)
            (xy -9.0932 2.0828)
            (xy -8.636 2.159)
            (xy -8.3312 2.2352)
            (xy -8.2042 2.286)
            (xy -8.1788 2.3114)
            (xy -8.0772 2.5146)
            (xy -7.9248 2.8448)
            (xy -7.747 3.2512)
            (xy -7.5692 3.6576)
            (xy -7.4168 4.0386)
            (xy -7.3152 4.318)
            (xy -7.2898 4.445)
            (xy -7.2898 4.445)
            (xy -7.366 4.572)
            (xy -7.5438 4.826)
            (xy -7.7978 5.207)
            (xy -8.128 5.6642)
            (xy -8.128 5.6896)
            (xy -8.4328 6.1468)
            (xy -8.6868 6.5278)
            (xy -8.8392 6.7818)
            (xy -8.9154 6.9088)
            (xy -8.9154 6.9088)
            (xy -8.8138 7.0358)
            (xy -8.5852 7.2898)
            (xy -8.255 7.6454)
            (xy -7.874 8.0264)
            (xy -7.747 8.1534)
            (xy -7.3152 8.5852)
            (xy -7.0104 8.8646)
            (xy -6.8326 8.9916)
            (xy -6.731 9.0424)
            (xy -6.731 9.0424)
            (xy -6.604 8.9408)
            (xy -6.3246 8.763)
            (xy -5.9436 8.509)
            (xy -5.4864 8.2042)
            (xy -5.461 8.1788)
            (xy -5.0038 7.874)
            (xy -4.6482 7.62)
            (xy -4.3688 7.4422)
            (xy -4.2672 7.3914)
            (xy -4.2418 7.3914)
            (xy -4.064 7.4422)
            (xy -3.7338 7.5438)
            (xy -3.3528 7.6962)
            (xy -2.9464 7.874)
            (xy -2.5654 8.0264)
            (xy -2.286 8.1534)
            (xy -2.159 8.2296)
            (xy -2.159 8.2296)
            (xy -2.1082 8.382)
            (xy -2.032 8.7122)
            (xy -1.9304 9.1694)
            (xy -1.8288 9.7282)
            (xy -1.8034 9.8044)
            (xy -1.7018 10.3378)
            (xy -1.6256 10.7696)
            (xy -1.5748 11.0744)
            (xy -1.524 11.2014)
            (xy -1.4478 11.2268)
            (xy -1.1938 11.2522)
            (xy -0.8128 11.2522)
            (xy -0.3302 11.2522)
            (xy 0.1524 11.2522)
            (xy 0.6604 11.2522)
            (xy 1.0668 11.2268)
            (xy 1.3716 11.2014)
            (xy 1.4986 11.176)
            (xy 1.4986 11.176)
            (xy 1.5494 11.0236)
            (xy 1.6256 10.6934)
            (xy 1.7018 10.2108)
            (xy 1.8288 9.6774)
            (xy 1.8288 9.5758)
            (xy 1.9304 9.0424)
            (xy 2.032 8.6106)
            (xy 2.0828 8.3058)
            (xy 2.1336 8.2042)
            (xy 2.159 8.1788)
            (xy 2.3876 8.0772)
            (xy 2.7432 7.9248)
            (xy 3.175 7.747)
            (xy 4.191 7.3406)
            (xy 5.461 8.2042)
            (xy 5.5626 8.2804)
            (xy 6.0198 8.5852)
            (xy 6.3754 8.8392)
            (xy 6.6294 8.9916)
            (xy 6.7564 9.0424)
            (xy 6.7564 9.0424)
            (xy 6.8834 8.9408)
            (xy 7.1374 8.7122)
            (xy 7.4676 8.382)
            (xy 7.8486 7.9756)
            (xy 8.1534 7.6962)
            (xy 8.4836 7.3406)
            (xy 8.7122 7.112)
            (xy 8.8392 6.9596)
            (xy 8.8646 6.858)
            (xy 8.8646 6.8072)
            (xy 8.7884 6.6802)
            (xy 8.6106 6.4008)
            (xy 8.3312 6.0198)
            (xy 8.0264 5.588)
            (xy 7.7978 5.207)
            (xy 7.5184 4.8006)
            (xy 7.3406 4.4958)
            (xy 7.2898 4.3434)
            (xy 7.2898 4.2926)
            (xy 7.3914 4.0386)
            (xy 7.5184 3.683)
            (xy 7.7216 3.2258)
            (xy 8.1534 2.2352)
            (xy 8.7884 2.1082)
            (xy 9.1948 2.0574)
            (xy 9.7536 1.9304)
            (xy 10.2616 1.8288)
            (xy 11.0998 1.6764)
            (xy 11.1252 -1.3208)
            (xy 10.9982 -1.3716)
            (xy 10.8712 -1.397)
            (xy 10.5664 -1.4732)
            (xy 10.1346 -1.5494)
            (xy 9.6266 -1.651)
            (xy 9.1948 -1.7272)
            (xy 8.7376 -1.8288)
            (xy 8.4328 -1.8796)
            (xy 8.2804 -1.905)
            (xy 8.255 -1.9558)
            (xy 8.1534 -2.159)
            (xy 7.9756 -2.5146)
            (xy 7.8232 -2.921)
            (xy 7.6454 -3.3274)
            (xy 7.493 -3.7338)
            (xy 7.366 -4.0132)
            (xy 7.3406 -4.191)
            (xy 7.3914 -4.2926)
            (xy 7.5692 -4.5466)
            (xy 7.7978 -4.9276)
            (xy 8.1026 -5.3594)
            (xy 8.4074 -5.7912)
            (xy 8.6614 -6.1722)
            (xy 8.8138 -6.4262)
            (xy 8.89 -6.5532)
            (xy 8.8646 -6.6548)
            (xy 8.6868 -6.858)
            (xy 8.3566 -7.1882)
            (xy 7.874 -7.6708)
            (xy 7.7978 -7.747)
            (xy 7.3914 -8.128)
            (xy 7.0612 -8.4328)
            (xy 6.8326 -8.636)
            (xy 6.731 -8.7122)
          )
          (stroke (width 0) (type default) (color 0 0 0 0))
          (fill (type outline))
        )
      )
    )
    (symbol "Mechanical:MountingHole_Pad" (pin_numbers hide) (pin_names (offset 1.016) hide) (in_bom yes) (on_board yes)
      (property "Reference" "H" (id 0) (at 0 6.35 0)
        (effects (font (size 1.27 1.27)))
      )
      (property "Value" "MountingHole_Pad" (id 1) (at 0 4.445 0)
        (effects (font (size 1.27 1.27)))
      )
      (property "Footprint" "" (id 2) (at 0 0 0)
        (effects (font (size 1.27 1.27)) hide)
      )
      (property "Datasheet" "~" (id 3) (at 0 0 0)
        (effects (font (size 1.27 1.27)) hide)
      )
      (property "ki_keywords" "mounting hole" (id 4) (at 0 0 0)
        (effects (font (size 1.27 1.27)) hide)
      )
      (property "ki_description" "Mounting Hole with connection" (id 5) (at 0 0 0)
        (effects (font (size 1.27 1.27)) hide)
      )
      (property "ki_fp_filters" "MountingHole*Pad*" (id 6) (at 0 0 0)
        (effects (font (size 1.27 1.27)) hide)
      )
      (symbol "MountingHole_Pad_0_1"
        (circle (center 0 1.27) (radius 1.27)
          (stroke (width 1.27) (type default) (color 0 0 0 0))
          (fill (type none))
        )
      )
      (symbol "MountingHole_Pad_1_1"
        (pin input line (at 0 -2.54 90) (length 2.54)
          (name "1" (effects (font (size 1.27 1.27))))
          (number "1" (effects (font (size 1.27 1.27))))
        )
      )
    )
    (symbol "power:GND" (power) (pin_names (offset 0)) (in_bom yes) (on_board yes)
      (property "Reference" "#PWR" (id 0) (at 0 -6.35 0)
        (effects (font (size 1.27 1.27)) hide)
      )
      (property "Value" "GND" (id 1) (at 0 -3.81 0)
        (effects (font (size 1.27 1.27)))
      )
      (property "Footprint" "" (id 2) (at 0 0 0)
        (effects (font (size 1.27 1.27)) hide)
      )
      (property "Datasheet" "" (id 3) (at 0 0 0)
        (effects (font (size 1.27 1.27)) hide)
      )
      (property "ki_keywords" "power-flag" (id 4) (at 0 0 0)
        (effects (font (size 1.27 1.27)) hide)
      )
      (property "ki_description" "Power symbol creates a global label with name \"GND\" , ground" (id 5) (at 0 0 0)
        (effects (font (size 1.27 1.27)) hide)
      )
      (symbol "GND_0_1"
        (polyline
          (pts
            (xy 0 0)
            (xy 0 -1.27)
            (xy 1.27 -1.27)
            (xy 0 -2.54)
            (xy -1.27 -1.27)
            (xy 0 -1.27)
          )
          (stroke (width 0) (type default) (color 0 0 0 0))
          (fill (type none))
        )
      )
      (symbol "GND_1_1"
        (pin power_in line (at 0 0 270) (length 0) hide
          (name "GND" (effects (font (size 1.27 1.27))))
          (number "1" (effects (font (size 1.27 1.27))))
        )
      )
    )
  )

  (junction (at 93.98 182.88) (diameter 0) (color 0 0 0 0)
    (uuid 069db6d3-7e0b-418d-a546-4db76546aa0c)
  )
  (junction (at 118.11 182.88) (diameter 0) (color 0 0 0 0)
    (uuid 37688533-5cad-4bcc-8311-50c83a8406cb)
  )
  (junction (at 85.09 182.88) (diameter 0) (color 0 0 0 0)
    (uuid d2035181-3a8f-4a6e-bb79-1f7adcb9a7e3)
  )
  (junction (at 68.58 182.88) (diameter 0) (color 0 0 0 0)
    (uuid ef1ba8b8-f018-4658-b3d7-67211c125a89)
  )
  (junction (at 101.6 182.88) (diameter 0) (color 0 0 0 0)
    (uuid f99b79f7-361e-4ac1-959e-c10a2ffaa29d)
  )

  (wire (pts (xy 101.6 182.88) (xy 101.6 181.61))
    (stroke (width 0) (type default) (color 0 0 0 0))
    (uuid 01df41e6-5abb-4540-a58b-74c2c18e1c6a)
  )
  (wire (pts (xy 85.09 182.88) (xy 93.98 182.88))
    (stroke (width 0) (type default) (color 0 0 0 0))
    (uuid 086ac3b9-88d5-43fe-9369-7cf1f1a32003)
  )
  (wire (pts (xy 68.58 182.88) (xy 68.58 181.61))
    (stroke (width 0) (type default) (color 0 0 0 0))
    (uuid 1755269f-ac94-4cb3-aaba-a17886b0cd77)
  )
  (wire (pts (xy 85.09 182.88) (xy 85.09 181.61))
    (stroke (width 0) (type default) (color 0 0 0 0))
    (uuid 19d964f3-7f32-4b61-abc7-acfe6d2ebf74)
  )
  (wire (pts (xy 118.11 182.88) (xy 101.6 182.88))
    (stroke (width 0) (type default) (color 0 0 0 0))
    (uuid 1d9aba8d-b962-42ad-99c5-60cf1c7562fd)
  )
  (wire (pts (xy 85.09 182.88) (xy 68.58 182.88))
    (stroke (width 0) (type default) (color 0 0 0 0))
    (uuid 2a621eae-6c16-4860-a2e7-77f7f1981578)
  )
  (wire (pts (xy 133.35 181.61) (xy 133.35 182.88))
    (stroke (width 0) (type default) (color 0 0 0 0))
    (uuid 53ed8e4c-b200-4fe3-964c-48c697c6009e)
  )
  (wire (pts (xy 53.34 181.61) (xy 53.34 182.88))
    (stroke (width 0) (type default) (color 0 0 0 0))
    (uuid 9c8be3de-ae54-429c-9d36-2ac19cc95e79)
  )
  (wire (pts (xy 93.98 182.88) (xy 101.6 182.88))
    (stroke (width 0) (type default) (color 0 0 0 0))
    (uuid a6b8d4c4-e857-42a5-b951-0d50e3a87f14)
  )
  (wire (pts (xy 118.11 182.88) (xy 118.11 181.61))
    (stroke (width 0) (type default) (color 0 0 0 0))
    (uuid c5493c6c-0db3-4705-8f3c-1ca91ccb6553)
  )
  (wire (pts (xy 93.98 182.88) (xy 93.98 185.42))
    (stroke (width 0) (type default) (color 0 0 0 0))
    (uuid caea88aa-d672-4e77-ae1c-b82abc8742d4)
  )
  (wire (pts (xy 68.58 182.88) (xy 53.34 182.88))
    (stroke (width 0) (type default) (color 0 0 0 0))
    (uuid cf57ac2a-d4fb-4fe1-a20d-8f7725a091d8)
  )
  (wire (pts (xy 133.35 182.88) (xy 118.11 182.88))
    (stroke (width 0) (type default) (color 0 0 0 0))
    (uuid fe9f4c1c-aa08-401b-a9b0-39d4a05160d1)
  )

  (symbol (lib_id "Mechanical:MountingHole_Pad") (at 118.11 179.07 0) (unit 1)
    (in_bom no) (on_board yes) (fields_autoplaced)
    (uuid 1888d412-a847-4d0f-9ca7-86c43db6a79c)
    (property "Reference" "H105" (id 0) (at 120.65 176.9653 0)
      (effects (font (size 1.27 1.27)) (justify left))
    )
    (property "Value" "Exp_Mount" (id 1) (at 120.65 179.5022 0)
      (effects (font (size 1.27 1.27)) (justify left))
    )
    (property "Footprint" "MountingHole:MountingHole_2.7mm_M2.5_DIN965_Pad" (id 2) (at 118.11 179.07 0)
      (effects (font (size 1.27 1.27)) hide)
    )
    (property "Datasheet" "~" (id 3) (at 118.11 179.07 0)
      (effects (font (size 1.27 1.27)) hide)
    )
    (property "LCSC#" "-" (id 4) (at 118.11 179.07 0)
      (effects (font (size 1.27 1.27)) hide)
    )
    (pin "1" (uuid 317fe3eb-8d7e-4985-acfe-237c47de8dc5))
  )

  (symbol (lib_id "Mechanical:MountingHole_Pad") (at 68.58 179.07 0) (unit 1)
    (in_bom no) (on_board yes) (fields_autoplaced)
    (uuid 2438133e-824f-4fa3-a847-85595f4a675b)
    (property "Reference" "H102" (id 0) (at 71.12 176.9653 0)
      (effects (font (size 1.27 1.27)) (justify left))
    )
    (property "Value" "Exp_Mount" (id 1) (at 71.12 179.5022 0)
      (effects (font (size 1.27 1.27)) (justify left))
    )
    (property "Footprint" "MountingHole:MountingHole_2.7mm_M2.5_DIN965_Pad" (id 2) (at 68.58 179.07 0)
      (effects (font (size 1.27 1.27)) hide)
    )
    (property "Datasheet" "~" (id 3) (at 68.58 179.07 0)
      (effects (font (size 1.27 1.27)) hide)
    )
    (property "LCSC#" "-" (id 4) (at 68.58 179.07 0)
      (effects (font (size 1.27 1.27)) hide)
    )
    (pin "1" (uuid 3d1a838d-e5d1-45a8-9f0b-7e2723fbd44c))
  )

  (symbol (lib_id "Mechanical:MountingHole_Pad") (at 53.34 179.07 0) (unit 1)
    (in_bom no) (on_board yes) (fields_autoplaced)
    (uuid 5dbbfd12-b610-4732-856c-da966d9156ca)
    (property "Reference" "H101" (id 0) (at 55.88 176.9653 0)
      (effects (font (size 1.27 1.27)) (justify left))
    )
    (property "Value" "Exp_Mount" (id 1) (at 55.88 179.5022 0)
      (effects (font (size 1.27 1.27)) (justify left))
    )
    (property "Footprint" "MountingHole:MountingHole_2.7mm_M2.5_DIN965_Pad" (id 2) (at 53.34 179.07 0)
      (effects (font (size 1.27 1.27)) hide)
    )
    (property "Datasheet" "~" (id 3) (at 53.34 179.07 0)
      (effects (font (size 1.27 1.27)) hide)
    )
    (property "LCSC#" "-" (id 4) (at 53.34 179.07 0)
      (effects (font (size 1.27 1.27)) hide)
    )
    (pin "1" (uuid 10b2c3a9-7dcb-4fa8-be50-5ac0d8dc44a9))
  )

  (symbol (lib_id "Mechanical:MountingHole_Pad") (at 133.35 179.07 0) (unit 1)
    (in_bom no) (on_board yes) (fields_autoplaced)
    (uuid 785cd0c9-e2dc-4ca3-9c06-187e40db1d03)
    (property "Reference" "H106" (id 0) (at 135.89 176.9653 0)
      (effects (font (size 1.27 1.27)) (justify left))
    )
    (property "Value" "Exp_Mount" (id 1) (at 135.89 179.5022 0)
      (effects (font (size 1.27 1.27)) (justify left))
    )
    (property "Footprint" "MountingHole:MountingHole_2.7mm_M2.5_DIN965_Pad" (id 2) (at 133.35 179.07 0)
      (effects (font (size 1.27 1.27)) hide)
    )
    (property "Datasheet" "~" (id 3) (at 133.35 179.07 0)
      (effects (font (size 1.27 1.27)) hide)
    )
    (property "LCSC#" "-" (id 4) (at 133.35 179.07 0)
      (effects (font (size 1.27 1.27)) hide)
    )
    (pin "1" (uuid e935b48e-46f3-4145-8efc-d486031223cd))
  )

  (symbol (lib_id "Mechanical:MountingHole_Pad") (at 101.6 179.07 0) (unit 1)
    (in_bom no) (on_board yes) (fields_autoplaced)
    (uuid be80f093-877d-49e3-9e27-86e306881110)
    (property "Reference" "H104" (id 0) (at 104.14 176.9653 0)
      (effects (font (size 1.27 1.27)) (justify left))
    )
    (property "Value" "Exp_Mount" (id 1) (at 104.14 179.5022 0)
      (effects (font (size 1.27 1.27)) (justify left))
    )
    (property "Footprint" "MountingHole:MountingHole_2.7mm_M2.5_DIN965_Pad" (id 2) (at 101.6 179.07 0)
      (effects (font (size 1.27 1.27)) hide)
    )
    (property "Datasheet" "~" (id 3) (at 101.6 179.07 0)
      (effects (font (size 1.27 1.27)) hide)
    )
    (property "LCSC#" "-" (id 4) (at 101.6 179.07 0)
      (effects (font (size 1.27 1.27)) hide)
    )
    (pin "1" (uuid 44b39dba-1ad8-43e6-a4ab-820bbee97d59))
  )

  (symbol (lib_id "Mechanical:MountingHole_Pad") (at 85.09 179.07 0) (unit 1)
    (in_bom no) (on_board yes) (fields_autoplaced)
    (uuid c26a3f31-1750-47b3-96a2-21e34a8e2f9a)
    (property "Reference" "H103" (id 0) (at 87.63 176.9653 0)
      (effects (font (size 1.27 1.27)) (justify left))
    )
    (property "Value" "Exp_Mount" (id 1) (at 87.63 179.5022 0)
      (effects (font (size 1.27 1.27)) (justify left))
    )
    (property "Footprint" "MountingHole:MountingHole_2.7mm_M2.5_DIN965_Pad" (id 2) (at 85.09 179.07 0)
      (effects (font (size 1.27 1.27)) hide)
    )
    (property "Datasheet" "~" (id 3) (at 85.09 179.07 0)
      (effects (font (size 1.27 1.27)) hide)
    )
    (property "LCSC#" "-" (id 4) (at 85.09 179.07 0)
      (effects (font (size 1.27 1.27)) hide)
    )
    (pin "1" (uuid 48bfa5f4-5aad-417e-8f88-aa2db4a97f4e))
  )

  (symbol (lib_id "Graphic:Logo_Open_Hardware_Large") (at 262.89 148.59 0) (unit 1)
    (in_bom no) (on_board yes) (fields_autoplaced)
    (uuid cc37ae3f-b019-4f49-bf66-7ebcfae4ab05)
    (property "Reference" "LOGO101" (id 0) (at 262.89 135.89 0)
      (effects (font (size 1.27 1.27)) hide)
    )
    (property "Value" "Logo_Open_Hardware_Large" (id 1) (at 262.89 158.75 0)
      (effects (font (size 1.27 1.27)) hide)
    )
    (property "Footprint" "Symbol:OSHW-Symbol_6.7x6mm_SilkScreen" (id 2) (at 262.89 148.59 0)
      (effects (font (size 1.27 1.27)) hide)
    )
    (property "Datasheet" "~" (id 3) (at 262.89 148.59 0)
      (effects (font (size 1.27 1.27)) hide)
    )
    (property "LCSC#" "-" (id 4) (at 262.89 148.59 0)
      (effects (font (size 1.27 1.27)) hide)
    )
  )

  (symbol (lib_id "power:GND") (at 93.98 185.42 0) (unit 1)
    (in_bom yes) (on_board yes) (fields_autoplaced)
    (uuid d7ee974c-6610-4495-b51b-e8f921738a1a)
    (property "Reference" "#PWR0101" (id 0) (at 93.98 191.77 0)
      (effects (font (size 1.27 1.27)) hide)
    )
    (property "Value" "GND" (id 1) (at 93.98 189.8634 0))
    (property "Footprint" "" (id 2) (at 93.98 185.42 0)
      (effects (font (size 1.27 1.27)) hide)
    )
    (property "Datasheet" "" (id 3) (at 93.98 185.42 0)
      (effects (font (size 1.27 1.27)) hide)
    )
    (pin "1" (uuid 50047819-a682-4f89-85da-8ac00cee88a1))
  )

  (sheet (at 177.8 26.67) (size 57.15 43.18) (fields_autoplaced)
    (stroke (width 0.1524) (type solid) (color 0 0 0 0))
    (fill (color 0 0 0 0.0000))
    (uuid 2128cd6a-874b-4c20-bf4b-b5c19d67d488)
    (property "Sheet name" "Input" (id 0) (at 177.8 25.9584 0)
      (effects (font (size 1.27 1.27)) (justify left bottom))
    )
    (property "Sheet file" "input.kicad_sch" (id 1) (at 177.8 70.4346 0)
      (effects (font (size 1.27 1.27)) (justify left top))
    )
  )

  (sheet (at 177.8 90.17) (size 55.88 48.26) (fields_autoplaced)
    (stroke (width 0.1524) (type solid) (color 0 0 0 0))
    (fill (color 0 0 0 0.0000))
    (uuid 5dffe156-2637-4111-9293-5095b6e9841a)
    (property "Sheet name" "Output" (id 0) (at 177.8 89.4584 0)
      (effects (font (size 1.27 1.27)) (justify left bottom))
    )
    (property "Sheet file" "output.kicad_sch" (id 1) (at 177.8 139.0146 0)
      (effects (font (size 1.27 1.27)) (justify left top))
    )
  )

  (sheet (at 44.45 83.82) (size 69.85 67.31) (fields_autoplaced)
    (stroke (width 0.1524) (type solid) (color 0 0 0 0))
    (fill (color 0 0 0 0.0000))
    (uuid db199a83-944d-41ec-bbed-2b8082a8e54e)
    (property "Sheet name" "ESP & Ethernet" (id 0) (at 44.45 83.1084 0)
      (effects (font (size 1.27 1.27)) (justify left bottom))
    )
    (property "Sheet file" "espehter.kicad_sch" (id 1) (at 44.45 151.7146 0)
      (effects (font (size 1.27 1.27)) (justify left top))
    )
  )

  (sheet (at 39.37 24.13) (size 78.74 40.64) (fields_autoplaced)
    (stroke (width 0.1524) (type solid) (color 0 0 0 0))
    (fill (color 0 0 0 0.0000))
    (uuid efacf41c-d4be-435c-b693-d66309fda1a5)
    (property "Sheet name" "Power" (id 0) (at 39.37 23.4184 0)
      (effects (font (size 1.27 1.27)) (justify left bottom))
    )
    (property "Sheet file" "Power.kicad_sch" (id 1) (at 39.37 65.3546 0)
      (effects (font (size 1.27 1.27)) (justify left top))
    )
  )

  (sheet_instances
    (path "/" (page "1"))
    (path "/db199a83-944d-41ec-bbed-2b8082a8e54e" (page "2"))
    (path "/5dffe156-2637-4111-9293-5095b6e9841a" (page "3"))
    (path "/2128cd6a-874b-4c20-bf4b-b5c19d67d488" (page "4"))
    (path "/efacf41c-d4be-435c-b693-d66309fda1a5" (page "5"))
  )

  (symbol_instances
    (path "/db199a83-944d-41ec-bbed-2b8082a8e54e/abb98581-9777-4fbf-bb9c-c1b0b4cdef64"
      (reference "#FLG0101") (unit 1) (value "PWR_FLAG") (footprint "")
    )
    (path "/db199a83-944d-41ec-bbed-2b8082a8e54e/e2e372fc-4e4d-41a2-979a-8e4fded16fa0"
      (reference "#FLG0201") (unit 1) (value "PWR_FLAG") (footprint "")
    )
    (path "/efacf41c-d4be-435c-b693-d66309fda1a5/562fd87b-8dfb-434e-9013-afa2c18b72ca"
      (reference "#FLG0501") (unit 1) (value "PWR_FLAG") (footprint "")
    )
    (path "/d7ee974c-6610-4495-b51b-e8f921738a1a"
      (reference "#PWR0101") (unit 1) (value "GND") (footprint "")
    )
    (path "/db199a83-944d-41ec-bbed-2b8082a8e54e/fca70733-5246-44d5-a47f-80c9c4c9f7b1"
      (reference "#PWR0102") (unit 1) (value "GND") (footprint "")
    )
    (path "/db199a83-944d-41ec-bbed-2b8082a8e54e/9a5d9472-e632-46c2-ba0f-1dfd384cff53"
      (reference "#PWR0201") (unit 1) (value "GND") (footprint "")
    )
    (path "/db199a83-944d-41ec-bbed-2b8082a8e54e/196258df-c159-4719-a6a4-7b7c9d2700d0"
      (reference "#PWR0202") (unit 1) (value "GND") (footprint "")
    )
    (path "/db199a83-944d-41ec-bbed-2b8082a8e54e/e46f4e64-0db3-4083-9a33-21922948c8db"
      (reference "#PWR0203") (unit 1) (value "GND") (footprint "")
    )
    (path "/db199a83-944d-41ec-bbed-2b8082a8e54e/57e62da3-cb76-4ad9-ac18-7844b0316be9"
      (reference "#PWR0204") (unit 1) (value "+3.3V") (footprint "")
    )
    (path "/db199a83-944d-41ec-bbed-2b8082a8e54e/b2d1524e-884e-457d-ba9c-7497338f18c6"
      (reference "#PWR0205") (unit 1) (value "GND") (footprint "")
    )
    (path "/db199a83-944d-41ec-bbed-2b8082a8e54e/cfbd4bc2-1da9-4ec6-b47c-a4fb2640db17"
      (reference "#PWR0206") (unit 1) (value "+3.3V") (footprint "")
    )
    (path "/db199a83-944d-41ec-bbed-2b8082a8e54e/cb83d746-3f4b-44f0-8600-cad8c43d539f"
      (reference "#PWR0207") (unit 1) (value "+3.3V") (footprint "")
    )
    (path "/db199a83-944d-41ec-bbed-2b8082a8e54e/059e9b2b-3832-42a3-ab7e-ce89464bc84b"
      (reference "#PWR0208") (unit 1) (value "GND") (footprint "")
    )
    (path "/db199a83-944d-41ec-bbed-2b8082a8e54e/cf2c4a15-c92f-4f1a-ac46-5263a27421a2"
      (reference "#PWR0209") (unit 1) (value "+3.3V") (footprint "")
    )
    (path "/db199a83-944d-41ec-bbed-2b8082a8e54e/b087b558-0113-4b91-bede-84936ad64877"
      (reference "#PWR0210") (unit 1) (value "GND") (footprint "")
    )
    (path "/db199a83-944d-41ec-bbed-2b8082a8e54e/77bf8972-cceb-45fb-ac26-035752b3c02f"
      (reference "#PWR0211") (unit 1) (value "GND") (footprint "")
    )
    (path "/db199a83-944d-41ec-bbed-2b8082a8e54e/fc0a0729-6f69-4e74-a463-52bb469705ee"
      (reference "#PWR0212") (unit 1) (value "+3.3V") (footprint "")
    )
    (path "/db199a83-944d-41ec-bbed-2b8082a8e54e/cc7706d2-d0f2-4471-bfc3-c2269134e19b"
      (reference "#PWR0213") (unit 1) (value "GND") (footprint "")
    )
    (path "/db199a83-944d-41ec-bbed-2b8082a8e54e/eafc7874-ce17-4e6c-a028-afede38d0fb7"
      (reference "#PWR0214") (unit 1) (value "GND") (footprint "")
    )
    (path "/db199a83-944d-41ec-bbed-2b8082a8e54e/a12bda84-cbba-45af-ac61-931b7feb8cb4"
      (reference "#PWR0215") (unit 1) (value "GND") (footprint "")
    )
    (path "/db199a83-944d-41ec-bbed-2b8082a8e54e/20e3cacf-c59f-4e8b-8146-6692dc51ef0f"
      (reference "#PWR0216") (unit 1) (value "GND") (footprint "")
    )
    (path "/db199a83-944d-41ec-bbed-2b8082a8e54e/5c1133f2-bbc4-4352-8365-0a3c1a12c9b9"
      (reference "#PWR0217") (unit 1) (value "GND") (footprint "")
    )
    (path "/db199a83-944d-41ec-bbed-2b8082a8e54e/a1448256-d781-463a-93fe-ee904271778f"
      (reference "#PWR0218") (unit 1) (value "GND") (footprint "")
    )
    (path "/db199a83-944d-41ec-bbed-2b8082a8e54e/c452c641-8069-41d8-9766-0b1ed69ad26f"
      (reference "#PWR0221") (unit 1) (value "+3.3V") (footprint "")
    )
    (path "/db199a83-944d-41ec-bbed-2b8082a8e54e/4afdb208-cf3f-423e-80b4-50589bd137fd"
      (reference "#PWR0222") (unit 1) (value "+3.3V") (footprint "")
    )
    (path "/db199a83-944d-41ec-bbed-2b8082a8e54e/cd66a900-dfb1-436f-b71c-663f60c4c30a"
      (reference "#PWR0223") (unit 1) (value "GND") (footprint "")
    )
    (path "/db199a83-944d-41ec-bbed-2b8082a8e54e/ba2a14ba-0af3-4bee-b212-85958d2f2508"
      (reference "#PWR0224") (unit 1) (value "GND") (footprint "")
    )
    (path "/db199a83-944d-41ec-bbed-2b8082a8e54e/1e1dfb08-458f-42cb-aaac-808214546be1"
      (reference "#PWR0225") (unit 1) (value "GND") (footprint "")
    )
    (path "/db199a83-944d-41ec-bbed-2b8082a8e54e/5d6169aa-44bb-4387-a7a0-d32f75fe8661"
      (reference "#PWR0226") (unit 1) (value "GND") (footprint "")
    )
    (path "/db199a83-944d-41ec-bbed-2b8082a8e54e/1b7b48c5-0ced-443c-95da-e29e27b7be56"
      (reference "#PWR0227") (unit 1) (value "GND") (footprint "")
    )
    (path "/db199a83-944d-41ec-bbed-2b8082a8e54e/19f95693-6e2f-4e52-ba4d-eec463c08716"
      (reference "#PWR0228") (unit 1) (value "GND") (footprint "")
    )
    (path "/db199a83-944d-41ec-bbed-2b8082a8e54e/1feea9e4-54ca-4b06-92a4-ca8848886cf5"
      (reference "#PWR0229") (unit 1) (value "+3.3V") (footprint "")
    )
    (path "/db199a83-944d-41ec-bbed-2b8082a8e54e/e4577fbf-acdb-44df-a59c-95dc9f72b348"
      (reference "#PWR0230") (unit 1) (value "GND") (footprint "")
    )
    (path "/db199a83-944d-41ec-bbed-2b8082a8e54e/3b6a55e8-51fd-4f57-9f4f-3ba6de46f3b3"
      (reference "#PWR0231") (unit 1) (value "GND") (footprint "")
    )
    (path "/db199a83-944d-41ec-bbed-2b8082a8e54e/5855e447-5836-40e4-b65e-d0a6519fa07b"
      (reference "#PWR0232") (unit 1) (value "+3.3V") (footprint "")
    )
    (path "/5dffe156-2637-4111-9293-5095b6e9841a/470b6958-64d2-4b93-bc38-bfed23ddec68"
      (reference "#PWR0301") (unit 1) (value "+3.3V") (footprint "")
    )
    (path "/5dffe156-2637-4111-9293-5095b6e9841a/8bb90b9e-294b-4b4a-bb67-df050ab52237"
      (reference "#PWR0302") (unit 1) (value "GND") (footprint "")
    )
    (path "/5dffe156-2637-4111-9293-5095b6e9841a/cfde71b5-2c91-4a06-b173-7995bc0a04de"
      (reference "#PWR0303") (unit 1) (value "GND") (footprint "")
    )
    (path "/5dffe156-2637-4111-9293-5095b6e9841a/a7581643-8dd2-4d3a-a73d-468f5aa52b36"
      (reference "#PWR0304") (unit 1) (value "+3.3V") (footprint "")
    )
    (path "/5dffe156-2637-4111-9293-5095b6e9841a/398462be-4c09-4555-9f63-148237d4915b"
      (reference "#PWR0305") (unit 1) (value "GND") (footprint "")
    )
    (path "/5dffe156-2637-4111-9293-5095b6e9841a/bc8ed329-81ea-4e4c-9119-df38b7b0a250"
      (reference "#PWR0306") (unit 1) (value "GND") (footprint "")
    )
    (path "/5dffe156-2637-4111-9293-5095b6e9841a/cd2a1057-ec20-4708-a21a-458c10ff5984"
      (reference "#PWR0307") (unit 1) (value "GND") (footprint "")
    )
    (path "/5dffe156-2637-4111-9293-5095b6e9841a/3a06f183-ff8d-4139-aab1-17277bcd3e4c"
      (reference "#PWR0308") (unit 1) (value "+24V") (footprint "")
    )
    (path "/5dffe156-2637-4111-9293-5095b6e9841a/44b6a7c7-45d5-478d-af77-087040a31db1"
      (reference "#PWR0309") (unit 1) (value "+24V") (footprint "")
    )
    (path "/5dffe156-2637-4111-9293-5095b6e9841a/99479450-c0b6-4dc7-afcc-81968865aaf0"
      (reference "#PWR0310") (unit 1) (value "+24V") (footprint "")
    )
    (path "/2128cd6a-874b-4c20-bf4b-b5c19d67d488/c3d264c2-b274-441f-ba0b-ca41a37c7681"
      (reference "#PWR0401") (unit 1) (value "GND") (footprint "")
    )
    (path "/2128cd6a-874b-4c20-bf4b-b5c19d67d488/08668795-c1ce-442c-8138-0f2818a96e40"
      (reference "#PWR0402") (unit 1) (value "GND") (footprint "")
    )
    (path "/2128cd6a-874b-4c20-bf4b-b5c19d67d488/5788ce6d-136b-45ae-a490-5ae9d055d0d7"
      (reference "#PWR0403") (unit 1) (value "GND") (footprint "")
    )
    (path "/2128cd6a-874b-4c20-bf4b-b5c19d67d488/a95b722e-a7bb-4c91-bfa7-6c50582b7d4c"
      (reference "#PWR0404") (unit 1) (value "GND") (footprint "")
    )
    (path "/2128cd6a-874b-4c20-bf4b-b5c19d67d488/54727094-238d-4225-9ce4-711465bf5811"
      (reference "#PWR0405") (unit 1) (value "+3.3V") (footprint "")
    )
    (path "/2128cd6a-874b-4c20-bf4b-b5c19d67d488/1f8b8d34-42d9-475d-bf32-41c0a83681f3"
      (reference "#PWR0406") (unit 1) (value "+3.3V") (footprint "")
    )
    (path "/2128cd6a-874b-4c20-bf4b-b5c19d67d488/e53f1e76-93cb-4963-ae9a-4ebb714db9c9"
      (reference "#PWR0407") (unit 1) (value "+3.3V") (footprint "")
    )
    (path "/2128cd6a-874b-4c20-bf4b-b5c19d67d488/84a1a23e-ee4d-4336-923d-734e80a53898"
      (reference "#PWR0408") (unit 1) (value "+3.3V") (footprint "")
    )
    (path "/2128cd6a-874b-4c20-bf4b-b5c19d67d488/9951eb5e-6af8-4f23-a4d7-14a16d346f74"
      (reference "#PWR0409") (unit 1) (value "GND") (footprint "")
    )
    (path "/2128cd6a-874b-4c20-bf4b-b5c19d67d488/1ac2dbc1-837f-4b55-8d43-be659ed56749"
      (reference "#PWR0410") (unit 1) (value "GND") (footprint "")
    )
    (path "/2128cd6a-874b-4c20-bf4b-b5c19d67d488/7d32883e-55ba-42d3-bbda-13f13f3b453b"
      (reference "#PWR0411") (unit 1) (value "GND") (footprint "")
    )
    (path "/2128cd6a-874b-4c20-bf4b-b5c19d67d488/d933a4be-458d-45aa-97fa-d3462d160a52"
      (reference "#PWR0412") (unit 1) (value "GND") (footprint "")
    )
    (path "/2128cd6a-874b-4c20-bf4b-b5c19d67d488/860a4346-585e-4c41-a015-a91ac5329411"
      (reference "#PWR0413") (unit 1) (value "+3.3V") (footprint "")
    )
    (path "/2128cd6a-874b-4c20-bf4b-b5c19d67d488/6df40085-ec2c-4d50-aaa0-3c347f3a784c"
      (reference "#PWR0414") (unit 1) (value "+3.3V") (footprint "")
    )
    (path "/2128cd6a-874b-4c20-bf4b-b5c19d67d488/ba9217ac-8e48-4842-bb76-a211b8206b53"
      (reference "#PWR0415") (unit 1) (value "+3.3V") (footprint "")
    )
    (path "/2128cd6a-874b-4c20-bf4b-b5c19d67d488/c3304381-0e9a-4884-bb6d-8d6b0439f4e4"
      (reference "#PWR0416") (unit 1) (value "+3.3V") (footprint "")
    )
    (path "/2128cd6a-874b-4c20-bf4b-b5c19d67d488/50213d91-0b7b-41c7-b1eb-15d8ae563c55"
      (reference "#PWR0417") (unit 1) (value "GND") (footprint "")
    )
    (path "/2128cd6a-874b-4c20-bf4b-b5c19d67d488/746427fd-7b9f-47c9-b6be-4923c54d417a"
      (reference "#PWR0418") (unit 1) (value "GND") (footprint "")
    )
    (path "/2128cd6a-874b-4c20-bf4b-b5c19d67d488/e5ef302a-2319-4944-8897-bf50af609c83"
      (reference "#PWR0419") (unit 1) (value "GND") (footprint "")
    )
    (path "/2128cd6a-874b-4c20-bf4b-b5c19d67d488/b5d075a1-fe03-4693-8299-127f667b7d2d"
      (reference "#PWR0420") (unit 1) (value "GND") (footprint "")
    )
    (path "/2128cd6a-874b-4c20-bf4b-b5c19d67d488/5e5d1f71-8940-4bdb-aecc-a613546524e1"
      (reference "#PWR0421") (unit 1) (value "+3.3V") (footprint "")
    )
    (path "/2128cd6a-874b-4c20-bf4b-b5c19d67d488/da38a1ab-f803-4be5-ba17-e9dfc994aae5"
      (reference "#PWR0422") (unit 1) (value "+3.3V") (footprint "")
    )
    (path "/2128cd6a-874b-4c20-bf4b-b5c19d67d488/985c77ad-4cde-40a5-bb75-b64a6a97a091"
      (reference "#PWR0423") (unit 1) (value "+3.3V") (footprint "")
    )
    (path "/2128cd6a-874b-4c20-bf4b-b5c19d67d488/12792314-b399-4406-9616-eebee3843bd7"
      (reference "#PWR0424") (unit 1) (value "+3.3V") (footprint "")
    )
    (path "/2128cd6a-874b-4c20-bf4b-b5c19d67d488/f87f046b-e0bc-44bb-9a9f-7417d2ce73af"
      (reference "#PWR0425") (unit 1) (value "GND") (footprint "")
    )
    (path "/2128cd6a-874b-4c20-bf4b-b5c19d67d488/fe7a5a10-5c4d-469c-9a98-6ec80008f4da"
      (reference "#PWR0426") (unit 1) (value "+3.3V") (footprint "")
    )
    (path "/2128cd6a-874b-4c20-bf4b-b5c19d67d488/98ba1f83-29b0-4e63-b3fc-78524cf3b016"
      (reference "#PWR0427") (unit 1) (value "+3.3V") (footprint "")
    )
    (path "/2128cd6a-874b-4c20-bf4b-b5c19d67d488/f86f70ea-f3b8-4270-bb57-4bc0692e6ffd"
      (reference "#PWR0428") (unit 1) (value "GND") (footprint "")
    )
    (path "/2128cd6a-874b-4c20-bf4b-b5c19d67d488/2a64bea7-57cb-414e-91f6-44fdb8dddd48"
      (reference "#PWR0429") (unit 1) (value "+24V") (footprint "")
    )
    (path "/2128cd6a-874b-4c20-bf4b-b5c19d67d488/44fb6ff5-66a5-430f-a711-1c86b2b9bf27"
      (reference "#PWR0430") (unit 1) (value "+3.3V") (footprint "")
    )
    (path "/2128cd6a-874b-4c20-bf4b-b5c19d67d488/8ae95289-c0cf-4d3a-9a9c-bb8fcb668a91"
      (reference "#PWR0431") (unit 1) (value "GND") (footprint "")
    )
    (path "/efacf41c-d4be-435c-b693-d66309fda1a5/46c2f7df-65cb-45e1-9f3e-55551836149b"
      (reference "#PWR0501") (unit 1) (value "GND") (footprint "")
    )
    (path "/efacf41c-d4be-435c-b693-d66309fda1a5/532d025d-fb7a-4f2b-909e-98e6d76dec26"
      (reference "#PWR0502") (unit 1) (value "+24V") (footprint "")
    )
    (path "/efacf41c-d4be-435c-b693-d66309fda1a5/417ca442-3db8-4697-869d-5a511cf1e75d"
      (reference "#PWR0503") (unit 1) (value "GND") (footprint "")
    )
    (path "/efacf41c-d4be-435c-b693-d66309fda1a5/5809323f-0bc7-462d-be12-f1eb44fd2503"
      (reference "#PWR0504") (unit 1) (value "GND") (footprint "")
    )
    (path "/efacf41c-d4be-435c-b693-d66309fda1a5/b8cb579a-47f7-4361-8de4-9ab2e1536bf1"
      (reference "#PWR0505") (unit 1) (value "GND") (footprint "")
    )
    (path "/efacf41c-d4be-435c-b693-d66309fda1a5/72f77ebb-1fb5-4c8d-86bf-5c90bb581921"
      (reference "#PWR0506") (unit 1) (value "GND") (footprint "")
    )
    (path "/efacf41c-d4be-435c-b693-d66309fda1a5/2511e939-4fc2-4aba-a277-5241ed9a44cf"
      (reference "#PWR0507") (unit 1) (value "GND") (footprint "")
    )
    (path "/efacf41c-d4be-435c-b693-d66309fda1a5/71bbb740-f88b-4372-98fb-070b11e1cdf9"
      (reference "#PWR0508") (unit 1) (value "+3.3V") (footprint "")
    )
    (path "/efacf41c-d4be-435c-b693-d66309fda1a5/938a91e2-c096-4934-b709-43b8ea96db9c"
      (reference "#PWR0509") (unit 1) (value "GND") (footprint "")
    )
    (path "/efacf41c-d4be-435c-b693-d66309fda1a5/4eb95f66-5a26-4495-9630-c73cfa6eff28"
      (reference "#PWR0510") (unit 1) (value "+3.3V") (footprint "")
    )
    (path "/efacf41c-d4be-435c-b693-d66309fda1a5/d0a95203-e627-4f84-88e1-cdd0f6d7dcf6"
      (reference "#PWR0511") (unit 1) (value "GND") (footprint "")
    )
    (path "/db199a83-944d-41ec-bbed-2b8082a8e54e/21e23f07-8d24-4f98-82ce-0948f29f5061"
      (reference "C201") (unit 1) (value "47uF") (footprint "Capacitor_SMD:C_0805_2012Metric")
    )
    (path "/db199a83-944d-41ec-bbed-2b8082a8e54e/58e51f77-d92a-445a-880b-ba1f495baf2e"
      (reference "C202") (unit 1) (value "10pF") (footprint "Capacitor_SMD:C_0603_1608Metric")
    )
    (path "/db199a83-944d-41ec-bbed-2b8082a8e54e/d683c384-0de3-453d-8854-9c9e161d61e6"
      (reference "C203") (unit 1) (value "4.7uF") (footprint "Capacitor_SMD:C_0603_1608Metric")
    )
    (path "/db199a83-944d-41ec-bbed-2b8082a8e54e/b98b9a15-4492-4703-aaa6-9229f084028a"
      (reference "C204") (unit 1) (value "12pF") (footprint "Capacitor_SMD:C_0402_1005Metric")
    )
    (path "/db199a83-944d-41ec-bbed-2b8082a8e54e/af00125a-7f0e-4128-b0bd-c655033a72ae"
      (reference "C205") (unit 1) (value "12pF") (footprint "Capacitor_SMD:C_0402_1005Metric")
    )
    (path "/db199a83-944d-41ec-bbed-2b8082a8e54e/60ca7b15-6e06-4e24-b37e-d5490d162c87"
      (reference "C206") (unit 1) (value "1uF") (footprint "Capacitor_SMD:C_0603_1608Metric")
    )
    (path "/db199a83-944d-41ec-bbed-2b8082a8e54e/2444451f-73f0-43c9-bb3d-e2f493f5b6ac"
      (reference "C208") (unit 1) (value "470pF") (footprint "Capacitor_SMD:C_0603_1608Metric")
    )
    (path "/db199a83-944d-41ec-bbed-2b8082a8e54e/e516caf4-120e-494a-869c-d1102d55130e"
      (reference "C209") (unit 1) (value "10pF") (footprint "Capacitor_SMD:C_0402_1005Metric")
    )
    (path "/db199a83-944d-41ec-bbed-2b8082a8e54e/f53c8dbc-9de6-45cc-a8a6-3dbbbda4e6a4"
      (reference "C210") (unit 1) (value "4.7uF") (footprint "Capacitor_SMD:C_0603_1608Metric")
    )
    (path "/db199a83-944d-41ec-bbed-2b8082a8e54e/c077c174-3c80-4ee0-92ab-b59c5d42b664"
      (reference "C211") (unit 1) (value "100nF") (footprint "Capacitor_SMD:C_0402_1005Metric")
    )
    (path "/db199a83-944d-41ec-bbed-2b8082a8e54e/44f924d5-779d-483a-8dde-76b1cec2d45e"
      (reference "C212") (unit 1) (value "100nF") (footprint "Capacitor_SMD:C_0402_1005Metric")
    )
    (path "/db199a83-944d-41ec-bbed-2b8082a8e54e/a44aea8c-9bbb-49e9-913f-e822ad38d890"
      (reference "C213") (unit 1) (value "100nF") (footprint "Capacitor_SMD:C_0402_1005Metric")
    )
    (path "/5dffe156-2637-4111-9293-5095b6e9841a/292df1bb-c485-4816-83fb-4ace170c2ace"
      (reference "C301") (unit 1) (value "10pF") (footprint "Capacitor_SMD:C_0603_1608Metric")
    )
    (path "/2128cd6a-874b-4c20-bf4b-b5c19d67d488/88e4272d-e6b8-4577-a1f1-ed85632a0e30"
      (reference "C401") (unit 1) (value "22uF") (footprint "Capacitor_SMD:C_0603_1608Metric")
    )
    (path "/2128cd6a-874b-4c20-bf4b-b5c19d67d488/19f559e1-e1a5-4a8c-873b-3a53be991bc7"
      (reference "C402") (unit 1) (value "22uF") (footprint "Capacitor_SMD:C_0603_1608Metric")
    )
    (path "/2128cd6a-874b-4c20-bf4b-b5c19d67d488/d1d24c89-b1a4-43a9-806f-2d224dccf89f"
      (reference "C403") (unit 1) (value "22uF") (footprint "Capacitor_SMD:C_0603_1608Metric")
    )
    (path "/2128cd6a-874b-4c20-bf4b-b5c19d67d488/dcba61ae-c312-434f-a635-c9907481020d"
      (reference "C404") (unit 1) (value "22uF") (footprint "Capacitor_SMD:C_0603_1608Metric")
    )
    (path "/2128cd6a-874b-4c20-bf4b-b5c19d67d488/aad8b991-62a1-479a-b7e1-6b3bae1a1f99"
      (reference "C405") (unit 1) (value "22uF") (footprint "Capacitor_SMD:C_0603_1608Metric")
    )
    (path "/2128cd6a-874b-4c20-bf4b-b5c19d67d488/76c77d8c-724c-468c-bc76-1e6cfd6f61a5"
      (reference "C406") (unit 1) (value "22uF") (footprint "Capacitor_SMD:C_0603_1608Metric")
    )
    (path "/2128cd6a-874b-4c20-bf4b-b5c19d67d488/137b4d10-953c-44f4-880e-ab4c6aa84f59"
      (reference "C407") (unit 1) (value "22uF") (footprint "Capacitor_SMD:C_0603_1608Metric")
    )
    (path "/2128cd6a-874b-4c20-bf4b-b5c19d67d488/1cd9dd48-97cc-4260-8cfc-416754632f68"
      (reference "C408") (unit 1) (value "22uF") (footprint "Capacitor_SMD:C_0603_1608Metric")
    )
    (path "/2128cd6a-874b-4c20-bf4b-b5c19d67d488/8a09840e-83cc-4fc9-aa87-b365caf6cda0"
      (reference "C409") (unit 1) (value "22uF") (footprint "Capacitor_SMD:C_0603_1608Metric")
    )
    (path "/2128cd6a-874b-4c20-bf4b-b5c19d67d488/26dcbe23-3a89-4d69-b3c6-15e84bc8c696"
      (reference "C410") (unit 1) (value "22uF") (footprint "Capacitor_SMD:C_0603_1608Metric")
    )
    (path "/2128cd6a-874b-4c20-bf4b-b5c19d67d488/1c39aad2-f36f-4904-b410-561d9f4e3278"
      (reference "C411") (unit 1) (value "22uF") (footprint "Capacitor_SMD:C_0603_1608Metric")
    )
    (path "/2128cd6a-874b-4c20-bf4b-b5c19d67d488/225611e0-5c5e-46c1-87eb-4537f97b48a9"
      (reference "C412") (unit 1) (value "22uF") (footprint "Capacitor_SMD:C_0603_1608Metric")
    )
    (path "/2128cd6a-874b-4c20-bf4b-b5c19d67d488/a5d624e7-4fbb-4886-b9de-78e8a3039ae7"
      (reference "C413") (unit 1) (value "10pF") (footprint "Capacitor_SMD:C_0603_1608Metric")
    )
    (path "/efacf41c-d4be-435c-b693-d66309fda1a5/6ccaac13-c1b5-4f07-9c1a-f61405394385"
      (reference "C501") (unit 1) (value "10uF") (footprint "Capacitor_SMD:C_1206_3216Metric")
    )
    (path "/efacf41c-d4be-435c-b693-d66309fda1a5/d767ea0e-7d09-476c-ba1b-e7fadbf28cb4"
      (reference "C502") (unit 1) (value "10uF") (footprint "Capacitor_SMD:C_1206_3216Metric")
    )
    (path "/efacf41c-d4be-435c-b693-d66309fda1a5/c8878f64-3d6d-4399-9c65-99b35a5022e2"
      (reference "C503") (unit 1) (value "4.7uF") (footprint "Capacitor_SMD:C_0603_1608Metric")
    )
    (path "/efacf41c-d4be-435c-b693-d66309fda1a5/6b82df40-6d88-4157-b553-18f6012e8ca3"
      (reference "C504") (unit 1) (value "10nF") (footprint "Capacitor_SMD:C_0402_1005Metric")
    )
    (path "/efacf41c-d4be-435c-b693-d66309fda1a5/228795ac-202a-461c-9392-03598cc98326"
      (reference "C505") (unit 1) (value "100uF") (footprint "Capacitor_Tantalum_SMD:CP_EIA-3528-21_Kemet-B")
    )
    (path "/efacf41c-d4be-435c-b693-d66309fda1a5/a4ee098e-4af0-4a13-bf4e-b4b82b7dcd82"
      (reference "C506") (unit 1) (value "100uF") (footprint "Capacitor_THT:CP_Radial_D5.0mm_P2.00mm")
    )
    (path "/efacf41c-d4be-435c-b693-d66309fda1a5/269c959f-7d96-44ac-8d18-a9c9c67bda45"
      (reference "C507") (unit 1) (value "100uF") (footprint "Capacitor_THT:CP_Radial_D5.0mm_P2.00mm")
    )
    (path "/db199a83-944d-41ec-bbed-2b8082a8e54e/1a798c04-0978-4cec-bf00-bcc1a45200f3"
      (reference "D201") (unit 1) (value "GREEN") (footprint "LED_SMD:LED_0603_1608Metric")
    )
    (path "/db199a83-944d-41ec-bbed-2b8082a8e54e/f90c26dc-193b-4ab8-89b0-618ed7117e9a"
      (reference "D202") (unit 1) (value "BLUE") (footprint "LED_SMD:LED_0603_1608Metric")
    )
    (path "/efacf41c-d4be-435c-b693-d66309fda1a5/7ead66d9-2ebe-4b4c-a9ed-92d265787573"
      (reference "D501") (unit 1) (value "SS34") (footprint "Diode_SMD:D_SMA")
    )
    (path "/efacf41c-d4be-435c-b693-d66309fda1a5/7047d35f-9396-4e03-83cc-11152b6a5197"
      (reference "D502") (unit 1) (value "GREEN") (footprint "LED_SMD:LED_0603_1608Metric")
    )
    (path "/5dbbfd12-b610-4732-856c-da966d9156ca"
      (reference "H101") (unit 1) (value "Exp_Mount") (footprint "MountingHole:MountingHole_2.7mm_M2.5_DIN965_Pad")
    )
    (path "/2438133e-824f-4fa3-a847-85595f4a675b"
      (reference "H102") (unit 1) (value "Exp_Mount") (footprint "MountingHole:MountingHole_2.7mm_M2.5_DIN965_Pad")
    )
    (path "/c26a3f31-1750-47b3-96a2-21e34a8e2f9a"
      (reference "H103") (unit 1) (value "Exp_Mount") (footprint "MountingHole:MountingHole_2.7mm_M2.5_DIN965_Pad")
    )
    (path "/be80f093-877d-49e3-9e27-86e306881110"
      (reference "H104") (unit 1) (value "Exp_Mount") (footprint "MountingHole:MountingHole_2.7mm_M2.5_DIN965_Pad")
    )
    (path "/1888d412-a847-4d0f-9ca7-86c43db6a79c"
      (reference "H105") (unit 1) (value "Exp_Mount") (footprint "MountingHole:MountingHole_2.7mm_M2.5_DIN965_Pad")
    )
    (path "/785cd0c9-e2dc-4ca3-9c06-187e40db1d03"
      (reference "H106") (unit 1) (value "Exp_Mount") (footprint "MountingHole:MountingHole_2.7mm_M2.5_DIN965_Pad")
    )
    (path "/db199a83-944d-41ec-bbed-2b8082a8e54e/5e5fb6d3-7376-4cc3-8cc2-517ee22c740b"
      (reference "J201") (unit 1) (value "Conn_02x04_Odd_Even") (footprint "Connector_PinHeader_1.27mm:PinHeader_2x04_P1.27mm_Vertical")
    )
    (path "/db199a83-944d-41ec-bbed-2b8082a8e54e/cedbe877-12c2-4832-9773-3760a2e0efc2"
      (reference "J202") (unit 1) (value "Conn_02x05_Odd_Even") (footprint "Connector_PinHeader_1.27mm:PinHeader_2x05_P1.27mm_Vertical")
    )
    (path "/db199a83-944d-41ec-bbed-2b8082a8e54e/68054d92-c5d2-438c-86b6-5092c1be26ab"
      (reference "J203") (unit 1) (value "Wuerth_7499010121A") (footprint "Connector:WE74990111211")
    )
    (path "/5dffe156-2637-4111-9293-5095b6e9841a/4270b08b-df31-4c02-8549-8caf041f455d"
      (reference "J301") (unit 1) (value "Conn_02x03_Odd_Even") (footprint "Connector:AKL267-6")
    )
    (path "/5dffe156-2637-4111-9293-5095b6e9841a/07bc69dc-4149-415f-94bf-24ec4f65b351"
      (reference "J302") (unit 1) (value "Conn_02x03_Odd_Even") (footprint "Connector:AKL267-6")
    )
    (path "/5dffe156-2637-4111-9293-5095b6e9841a/3b32416f-9998-4fc5-92bb-165185ee9c7f"
      (reference "J303") (unit 1) (value "Conn_01x02") (footprint "Connector_PinHeader_2.54mm:PinHeader_1x02_P2.54mm_Vertical")
    )
    (path "/5dffe156-2637-4111-9293-5095b6e9841a/a8d87c94-ab6d-43c7-81ae-7bbb080ebdda"
      (reference "J304") (unit 1) (value "Conn_02x03_Odd_Even") (footprint "Connector:AKL267-6")
    )
    (path "/5dffe156-2637-4111-9293-5095b6e9841a/4617b9ac-2004-4540-81bd-82720a00818f"
      (reference "J305") (unit 1) (value "Conn_02x03_Odd_Even") (footprint "Connector:AKL267-6")
    )
    (path "/2128cd6a-874b-4c20-bf4b-b5c19d67d488/81dc23a8-66a7-4192-a55f-bb9237f437b7"
      (reference "J401") (unit 1) (value "Conn_02x03_Odd_Even") (footprint "Connector:AKL267-6")
    )
    (path "/2128cd6a-874b-4c20-bf4b-b5c19d67d488/a9244a1e-79ea-4743-9310-45f75fe3e343"
      (reference "J402") (unit 1) (value "Conn_02x03_Odd_Even") (footprint "Connector:AKL267-6")
    )
    (path "/2128cd6a-874b-4c20-bf4b-b5c19d67d488/8048fa4f-fde8-42c2-929d-86a906ed494a"
      (reference "J403") (unit 1) (value "Conn_02x03_Odd_Even") (footprint "Connector:AKL267-6")
    )
    (path "/2128cd6a-874b-4c20-bf4b-b5c19d67d488/9ca08306-2326-439a-8ced-4fa815eb5b1d"
      (reference "J404") (unit 1) (value "Conn_02x03_Odd_Even") (footprint "Connector:AKL267-6")
    )
    (path "/efacf41c-d4be-435c-b693-d66309fda1a5/6c333931-b919-4147-bace-28e5059ce9c3"
      (reference "J501") (unit 1) (value "Screw_Terminal_01x02") (footprint "Connector:AKL012-02")
    )
    (path "/db199a83-944d-41ec-bbed-2b8082a8e54e/3304368c-cf7c-47dc-89f4-84c9f086e37d"
      (reference "JP201") (unit 1) (value "SolderJumper_2_Open") (footprint "Jumper:SolderJumper-2_P1.3mm_Open_TrianglePad1.0x1.5mm")
    )
    (path "/db199a83-944d-41ec-bbed-2b8082a8e54e/50adb96a-64d9-4e01-922e-9491802dfc91"
      (reference "JP202") (unit 1) (value "SolderJumper_2_Bridged") (footprint "Jumper:SolderJumper-2_P1.3mm_Bridged_Pad1.0x1.5mm")
    )
    (path "/db199a83-944d-41ec-bbed-2b8082a8e54e/5ed8b7b1-22ad-47bb-947b-a2cef5fe5853"
      (reference "JP203") (unit 1) (value "SolderJumper_2_Bridged") (footprint "Jumper:SolderJumper-2_P1.3mm_Bridged_Pad1.0x1.5mm")
    )
    (path "/db199a83-944d-41ec-bbed-2b8082a8e54e/0572c0be-0c9f-4782-b248-73a8a6049643"
      (reference "JP204") (unit 1) (value "SolderJumper_2_Open") (footprint "Jumper:SolderJumper-2_P1.3mm_Open_TrianglePad1.0x1.5mm")
    )
    (path "/db199a83-944d-41ec-bbed-2b8082a8e54e/2b1c21cf-b072-4268-9e14-7475597607c5"
      (reference "JP205") (unit 1) (value "SolderJumper_2_Open") (footprint "Jumper:SolderJumper-2_P1.3mm_Open_TrianglePad1.0x1.5mm")
    )
    (path "/db199a83-944d-41ec-bbed-2b8082a8e54e/30d84ebb-5b8b-4849-8b16-15aa84cb8d77"
      (reference "JP206") (unit 1) (value "SolderJumper_2_Open") (footprint "Jumper:SolderJumper-2_P1.3mm_Open_TrianglePad1.0x1.5mm")
    )
    (path "/db199a83-944d-41ec-bbed-2b8082a8e54e/e7f8da3f-92f3-4d73-8c03-7a270603be0c"
      (reference "L201") (unit 1) (value "500mA-600R") (footprint "Inductor_SMD:L_0805_2012Metric")
    )
    (path "/efacf41c-d4be-435c-b693-d66309fda1a5/ab3bfe46-0342-4f98-be6e-03138814682b"
      (reference "L501") (unit 1) (value "18uH") (footprint "Inductor_THT:L_Radial_D7.8mm_P5.00mm_Fastron_07HCP")
    )
    (path "/cc37ae3f-b019-4f49-bf66-7ebcfae4ab05"
      (reference "LOGO101") (unit 1) (value "Logo_Open_Hardware_Large") (footprint "Symbol:OSHW-Symbol_6.7x6mm_SilkScreen")
    )
    (path "/db199a83-944d-41ec-bbed-2b8082a8e54e/97492417-11a4-43a2-a17d-2a377e9cd41d"
      (reference "R201") (unit 1) (value "150R") (footprint "Resistor_SMD:R_0402_1005Metric")
    )
    (path "/db199a83-944d-41ec-bbed-2b8082a8e54e/563d2273-c0de-40b3-8aa8-c0b27171a348"
      (reference "R202") (unit 1) (value "150R") (footprint "Resistor_SMD:R_0402_1005Metric")
    )
    (path "/db199a83-944d-41ec-bbed-2b8082a8e54e/0f0eb63b-57fa-407a-9b13-204a7a0c8c5e"
      (reference "R203") (unit 1) (value "100k") (footprint "Resistor_SMD:R_0603_1608Metric")
    )
    (path "/db199a83-944d-41ec-bbed-2b8082a8e54e/d250d0c9-291b-4245-8c50-e0bdbc7e2621"
      (reference "R204") (unit 1) (value "100k") (footprint "Resistor_SMD:R_0603_1608Metric")
    )
    (path "/db199a83-944d-41ec-bbed-2b8082a8e54e/ab4e953e-1c40-4e8e-be2c-03961ca1c890"
      (reference "R205") (unit 1) (value "10k") (footprint "Resistor_SMD:R_0603_1608Metric")
    )
    (path "/db199a83-944d-41ec-bbed-2b8082a8e54e/d996f8b3-e1d3-4317-9d27-ef8f563aaeff"
      (reference "R206") (unit 1) (value "10k") (footprint "Resistor_SMD:R_0402_1005Metric")
    )
    (path "/db199a83-944d-41ec-bbed-2b8082a8e54e/08b0c02d-010e-4299-bfc2-cbe7b2e05510"
      (reference "R207") (unit 1) (value "10k") (footprint "Resistor_SMD:R_0603_1608Metric")
    )
    (path "/db199a83-944d-41ec-bbed-2b8082a8e54e/be0fcfdc-8670-47bd-ae5d-be0f71cb9093"
      (reference "R208") (unit 1) (value "10k") (footprint "Resistor_SMD:R_0402_1005Metric")
    )
    (path "/db199a83-944d-41ec-bbed-2b8082a8e54e/f7585afe-7bfc-4d73-96d4-34accde3f6f8"
      (reference "R209") (unit 1) (value "12k") (footprint "Resistor_SMD:R_0603_1608Metric")
    )
    (path "/db199a83-944d-41ec-bbed-2b8082a8e54e/3e677522-962e-4f0e-8d26-50973f55d310"
      (reference "R210") (unit 1) (value "49.9R") (footprint "Resistor_SMD:R_0603_1608Metric")
    )
    (path "/db199a83-944d-41ec-bbed-2b8082a8e54e/dd1d5935-6f68-4048-9dcc-595761a9e872"
      (reference "R211") (unit 1) (value "49.9R") (footprint "Resistor_SMD:R_0603_1608Metric")
    )
    (path "/db199a83-944d-41ec-bbed-2b8082a8e54e/e0bd124e-9ef4-4a8b-894e-7f2e31ba7642"
      (reference "R212") (unit 1) (value "49.9R") (footprint "Resistor_SMD:R_0603_1608Metric")
    )
    (path "/db199a83-944d-41ec-bbed-2b8082a8e54e/ae9facfd-aaad-4db8-b4c2-a848cc825a12"
      (reference "R213") (unit 1) (value "49.9R") (footprint "Resistor_SMD:R_0603_1608Metric")
    )
    (path "/db199a83-944d-41ec-bbed-2b8082a8e54e/aceb02eb-26fd-4ac8-af06-58b1b3abc7aa"
      (reference "R214") (unit 1) (value "270") (footprint "Resistor_SMD:R_0603_1608Metric")
    )
    (path "/db199a83-944d-41ec-bbed-2b8082a8e54e/d1b5b8d6-20bf-49b8-9381-946b5f4842a5"
      (reference "R215") (unit 1) (value "270") (footprint "Resistor_SMD:R_0603_1608Metric")
    )
    (path "/db199a83-944d-41ec-bbed-2b8082a8e54e/b48e1ea0-0962-4b46-88a2-2cee50eda6c1"
      (reference "R216") (unit 1) (value "10k") (footprint "Resistor_SMD:R_0603_1608Metric")
    )
    (path "/db199a83-944d-41ec-bbed-2b8082a8e54e/c63c0e42-78b3-466f-8668-7eeb62679ddf"
      (reference "R217") (unit 1) (value "270") (footprint "Resistor_SMD:R_0603_1608Metric")
    )
    (path "/2128cd6a-874b-4c20-bf4b-b5c19d67d488/0b5655a1-47b7-454a-bfc2-1489b5c0f2c2"
      (reference "R401") (unit 1) (value "2k2") (footprint "Resistor_SMD:R_0402_1005Metric")
    )
    (path "/2128cd6a-874b-4c20-bf4b-b5c19d67d488/66dd594e-7245-4850-908b-62dd1932ba5d"
      (reference "R402") (unit 1) (value "2k2") (footprint "Resistor_SMD:R_0402_1005Metric")
    )
    (path "/2128cd6a-874b-4c20-bf4b-b5c19d67d488/80686fa6-4881-451d-ad0b-608c1be1ba6f"
      (reference "R403") (unit 1) (value "2k2") (footprint "Resistor_SMD:R_0402_1005Metric")
    )
    (path "/2128cd6a-874b-4c20-bf4b-b5c19d67d488/935da6fa-edbc-4f0a-a60d-d9f48039cbac"
      (reference "R404") (unit 1) (value "2k2") (footprint "Resistor_SMD:R_0402_1005Metric")
    )
    (path "/2128cd6a-874b-4c20-bf4b-b5c19d67d488/6de67588-e287-482d-bb80-7823eb9ddce6"
      (reference "R405") (unit 1) (value "100k") (footprint "Resistor_SMD:R_0402_1005Metric")
    )
    (path "/2128cd6a-874b-4c20-bf4b-b5c19d67d488/0b81ede5-f7f8-478b-aebc-43ff0b09842b"
      (reference "R406") (unit 1) (value "100k") (footprint "Resistor_SMD:R_0402_1005Metric")
    )
    (path "/2128cd6a-874b-4c20-bf4b-b5c19d67d488/3583dc9d-d24d-4b3f-828b-2848f7ac55f0"
      (reference "R407") (unit 1) (value "100k") (footprint "Resistor_SMD:R_0402_1005Metric")
    )
    (path "/2128cd6a-874b-4c20-bf4b-b5c19d67d488/807419ec-9d2c-4727-91cb-1c654358cb39"
      (reference "R408") (unit 1) (value "100k") (footprint "Resistor_SMD:R_0402_1005Metric")
    )
    (path "/2128cd6a-874b-4c20-bf4b-b5c19d67d488/efe0fbec-9d74-442f-8354-169f8ebce93f"
      (reference "R409") (unit 1) (value "1k") (footprint "Resistor_SMD:R_0402_1005Metric")
    )
    (path "/2128cd6a-874b-4c20-bf4b-b5c19d67d488/b4ccbd7a-47b8-4448-a315-7257b5784682"
      (reference "R410") (unit 1) (value "1k") (footprint "Resistor_SMD:R_0402_1005Metric")
    )
    (path "/2128cd6a-874b-4c20-bf4b-b5c19d67d488/6eb95d18-2df4-4ebb-accf-51b9ad429129"
      (reference "R411") (unit 1) (value "1k") (footprint "Resistor_SMD:R_0402_1005Metric")
    )
    (path "/2128cd6a-874b-4c20-bf4b-b5c19d67d488/73db61a2-e66f-41aa-ac6a-a8adaa1b31ad"
      (reference "R412") (unit 1) (value "1k") (footprint "Resistor_SMD:R_0402_1005Metric")
    )
    (path "/2128cd6a-874b-4c20-bf4b-b5c19d67d488/e5d5431e-0882-4acb-8508-67b7fcec7a02"
      (reference "R413") (unit 1) (value "2k2") (footprint "Resistor_SMD:R_0402_1005Metric")
    )
    (path "/2128cd6a-874b-4c20-bf4b-b5c19d67d488/2afe6ed8-91cf-49e7-a885-eef2fb98d52c"
      (reference "R414") (unit 1) (value "2k2") (footprint "Resistor_SMD:R_0402_1005Metric")
    )
    (path "/2128cd6a-874b-4c20-bf4b-b5c19d67d488/bad428bf-003b-41b9-99ab-e99152a71f46"
      (reference "R415") (unit 1) (value "2k2") (footprint "Resistor_SMD:R_0402_1005Metric")
    )
    (path "/2128cd6a-874b-4c20-bf4b-b5c19d67d488/cbb7f8e8-295a-4746-aff6-5cd9c6da3282"
      (reference "R416") (unit 1) (value "2k2") (footprint "Resistor_SMD:R_0402_1005Metric")
    )
    (path "/2128cd6a-874b-4c20-bf4b-b5c19d67d488/0e98ac38-77f6-4d25-8142-06d1b641a696"
      (reference "R417") (unit 1) (value "100k") (footprint "Resistor_SMD:R_0402_1005Metric")
    )
    (path "/2128cd6a-874b-4c20-bf4b-b5c19d67d488/18ee1d59-284a-43f6-a59f-20afb6a8784d"
      (reference "R418") (unit 1) (value "100k") (footprint "Resistor_SMD:R_0402_1005Metric")
    )
    (path "/2128cd6a-874b-4c20-bf4b-b5c19d67d488/e14da247-a778-4a82-908c-dc6b6f9343d5"
      (reference "R419") (unit 1) (value "100k") (footprint "Resistor_SMD:R_0402_1005Metric")
    )
    (path "/2128cd6a-874b-4c20-bf4b-b5c19d67d488/3ca9fc10-7e07-433b-ade5-bdc14f29b543"
      (reference "R420") (unit 1) (value "100k") (footprint "Resistor_SMD:R_0402_1005Metric")
    )
    (path "/2128cd6a-874b-4c20-bf4b-b5c19d67d488/04770646-df03-40c3-b753-4a093fb74957"
      (reference "R421") (unit 1) (value "1k") (footprint "Resistor_SMD:R_0402_1005Metric")
    )
    (path "/2128cd6a-874b-4c20-bf4b-b5c19d67d488/861df46b-6787-4d66-a155-3cba970a360c"
      (reference "R422") (unit 1) (value "1k") (footprint "Resistor_SMD:R_0402_1005Metric")
    )
    (path "/2128cd6a-874b-4c20-bf4b-b5c19d67d488/1397c091-3bee-4e85-a7b2-e0841cca84d6"
      (reference "R423") (unit 1) (value "1k") (footprint "Resistor_SMD:R_0402_1005Metric")
    )
    (path "/2128cd6a-874b-4c20-bf4b-b5c19d67d488/c844b88b-8f83-49c9-aa72-4ceb43b05819"
      (reference "R424") (unit 1) (value "1k") (footprint "Resistor_SMD:R_0402_1005Metric")
    )
    (path "/2128cd6a-874b-4c20-bf4b-b5c19d67d488/f99d9765-47b3-46d8-b421-2c5b27dab9dd"
      (reference "R425") (unit 1) (value "2k2") (footprint "Resistor_SMD:R_0402_1005Metric")
    )
    (path "/2128cd6a-874b-4c20-bf4b-b5c19d67d488/489f2cfd-b890-4583-b99b-fdb1016a82f7"
      (reference "R426") (unit 1) (value "2k2") (footprint "Resistor_SMD:R_0402_1005Metric")
    )
    (path "/2128cd6a-874b-4c20-bf4b-b5c19d67d488/af9decb4-17de-469c-acd5-690784893208"
      (reference "R427") (unit 1) (value "2k2") (footprint "Resistor_SMD:R_0402_1005Metric")
    )
    (path "/2128cd6a-874b-4c20-bf4b-b5c19d67d488/bc5f8ad7-e5cd-43cc-8368-2d1932370607"
      (reference "R428") (unit 1) (value "2k2") (footprint "Resistor_SMD:R_0402_1005Metric")
    )
    (path "/2128cd6a-874b-4c20-bf4b-b5c19d67d488/c63e1412-0b05-4384-a025-1dc89089c23a"
      (reference "R429") (unit 1) (value "100k") (footprint "Resistor_SMD:R_0402_1005Metric")
    )
    (path "/2128cd6a-874b-4c20-bf4b-b5c19d67d488/c81c8c77-0b0f-44f8-a2fd-9b3b95d70731"
      (reference "R430") (unit 1) (value "100k") (footprint "Resistor_SMD:R_0402_1005Metric")
    )
    (path "/2128cd6a-874b-4c20-bf4b-b5c19d67d488/dfcdddb7-dc43-4760-931b-e486e8e594b2"
      (reference "R431") (unit 1) (value "100k") (footprint "Resistor_SMD:R_0402_1005Metric")
    )
    (path "/2128cd6a-874b-4c20-bf4b-b5c19d67d488/2bc5bacf-c9a5-4b9b-a518-09ba57850a0f"
      (reference "R432") (unit 1) (value "100k") (footprint "Resistor_SMD:R_0402_1005Metric")
    )
    (path "/2128cd6a-874b-4c20-bf4b-b5c19d67d488/a14bace0-af28-467e-848d-e23e27d29b8e"
      (reference "R433") (unit 1) (value "1k") (footprint "Resistor_SMD:R_0402_1005Metric")
    )
    (path "/2128cd6a-874b-4c20-bf4b-b5c19d67d488/fc9c49aa-74e6-406d-9987-25ffc8cf050a"
      (reference "R434") (unit 1) (value "1k") (footprint "Resistor_SMD:R_0402_1005Metric")
    )
    (path "/2128cd6a-874b-4c20-bf4b-b5c19d67d488/13854e41-1329-4ee5-8ab7-5038e3b28cdc"
      (reference "R435") (unit 1) (value "1k") (footprint "Resistor_SMD:R_0402_1005Metric")
    )
    (path "/2128cd6a-874b-4c20-bf4b-b5c19d67d488/7511108f-1dd8-4218-8c4f-453ff4f6bba4"
      (reference "R436") (unit 1) (value "1k") (footprint "Resistor_SMD:R_0402_1005Metric")
    )
    (path "/efacf41c-d4be-435c-b693-d66309fda1a5/a2af66b0-0382-4a70-98ce-b3979a0cc1f4"
      (reference "R501") (unit 1) (value "220k") (footprint "Resistor_SMD:R_0402_1005Metric")
    )
    (path "/efacf41c-d4be-435c-b693-d66309fda1a5/e3576c4c-e925-42e0-8c58-c800960532fd"
      (reference "R502") (unit 1) (value "47k") (footprint "Resistor_SMD:R_0402_1005Metric")
    )
    (path "/efacf41c-d4be-435c-b693-d66309fda1a5/e242b9b0-bb2c-445b-9a6e-b23f1c505a33"
      (reference "R503") (unit 1) (value "10k") (footprint "Resistor_SMD:R_0402_1005Metric")
    )
    (path "/efacf41c-d4be-435c-b693-d66309fda1a5/82cb192b-61ab-455d-bf56-e468e0f78784"
      (reference "R504") (unit 1) (value "4.7k") (footprint "Resistor_SMD:R_0402_1005Metric")
    )
    (path "/efacf41c-d4be-435c-b693-d66309fda1a5/35654375-2b81-4f7d-bdb8-8ed17733c59f"
      (reference "R505") (unit 1) (value "1k") (footprint "Resistor_SMD:R_0402_1005Metric")
    )
    (path "/efacf41c-d4be-435c-b693-d66309fda1a5/f17a02c4-bda7-4059-ac95-21a55b601d55"
      (reference "R506") (unit 1) (value "200") (footprint "Resistor_SMD:R_0402_1005Metric")
    )
    (path "/efacf41c-d4be-435c-b693-d66309fda1a5/668b06a3-5bde-460b-ba53-70defaaec4de"
      (reference "R507") (unit 1) (value "150R") (footprint "Resistor_SMD:R_0402_1005Metric")
    )
    (path "/db199a83-944d-41ec-bbed-2b8082a8e54e/de1e1f6a-a738-49cd-a09b-fff05a9afeaa"
      (reference "SW201") (unit 1) (value "SW_Push") (footprint "Button_Switch_SMD:SW_SPST_TL3342")
    )
    (path "/5dffe156-2637-4111-9293-5095b6e9841a/c761f8b2-bddc-43e2-b242-be9d6a8fe0f3"
      (reference "TP301") (unit 1) (value "TestPoint") (footprint "TestPoint:TestPoint_Pad_1.5x1.5mm")
    )
    (path "/2128cd6a-874b-4c20-bf4b-b5c19d67d488/1efb5b24-729e-434f-8553-1f6b10c2e679"
      (reference "TP401") (unit 1) (value "TestPoint") (footprint "TestPoint:TestPoint_Pad_1.5x1.5mm")
    )
    (path "/2128cd6a-874b-4c20-bf4b-b5c19d67d488/f7c12a2d-701e-49c7-83c1-f41d1d1221c0"
      (reference "TP402") (unit 1) (value "TestPoint") (footprint "TestPoint:TestPoint_Pad_1.5x1.5mm")
    )
    (path "/efacf41c-d4be-435c-b693-d66309fda1a5/f46169f0-3cb4-4cc9-b439-705fd55db1f8"
      (reference "TP501") (unit 1) (value "TestPoint") (footprint "TestPoint:TestPoint_Pad_1.5x1.5mm")
    )
    (path "/efacf41c-d4be-435c-b693-d66309fda1a5/8c4699e2-78d0-4fc7-ac7f-9ec88a22735c"
      (reference "TP502") (unit 1) (value "TestPoint") (footprint "TestPoint:TestPoint_Pad_1.5x1.5mm")
    )
    (path "/db199a83-944d-41ec-bbed-2b8082a8e54e/aee7a529-6ac6-4a80-9568-e26a40779fdc"
      (reference "U201") (unit 1) (value "ESP32-WROOM-32") (footprint "RF_Module:ESP32-WROOM-32")
    )
    (path "/db199a83-944d-41ec-bbed-2b8082a8e54e/cf67a977-c508-4305-aa85-22a5b3042bc3"
      (reference "U202") (unit 1) (value "LAN8720A") (footprint "Package_DFN_QFN:QFN-24-1EP_4x4mm_P0.5mm_EP2.6x2.6mm")
    )
    (path "/5dffe156-2637-4111-9293-5095b6e9841a/840fad5a-49a9-4708-b008-c0079fc0c87f"
      (reference "U301") (unit 1) (value "MCP23017_SO") (footprint "Package_DIP:DIP-28_W7.62mm")
    )
    (path "/5dffe156-2637-4111-9293-5095b6e9841a/831a4f32-12d2-4459-a312-8eb16d9bc613"
      (reference "U302") (unit 1) (value "ULN2003A") (footprint "Package_SO:SOIC-16_3.9x9.9mm_P1.27mm")
    )
    (path "/5dffe156-2637-4111-9293-5095b6e9841a/b64fe3cc-3a1f-41b6-9ac9-fa971c4a06a6"
      (reference "U303") (unit 1) (value "ULN2003A") (footprint "Package_SO:SOIC-16_3.9x9.9mm_P1.27mm")
    )
    (path "/2128cd6a-874b-4c20-bf4b-b5c19d67d488/0c39af5e-5a10-46f7-9c01-477495c493a0"
      (reference "U401") (unit 1) (value "EL3H7") (footprint "Package_SO:SO-4_4.4x2.3mm_P1.27mm")
    )
    (path "/2128cd6a-874b-4c20-bf4b-b5c19d67d488/900f59b8-f65f-4c32-a56b-2e4d9c8ba993"
      (reference "U402") (unit 1) (value "EL3H7") (footprint "Package_SO:SO-4_4.4x2.3mm_P1.27mm")
    )
    (path "/2128cd6a-874b-4c20-bf4b-b5c19d67d488/3d22994d-9cb5-4cb4-a319-a9aee02b4504"
      (reference "U403") (unit 1) (value "EL3H7") (footprint "Package_SO:SO-4_4.4x2.3mm_P1.27mm")
    )
    (path "/2128cd6a-874b-4c20-bf4b-b5c19d67d488/ac9407af-0b3c-4952-b5b3-099f9bf5f86f"
      (reference "U404") (unit 1) (value "EL3H7") (footprint "Package_SO:SO-4_4.4x2.3mm_P1.27mm")
    )
    (path "/2128cd6a-874b-4c20-bf4b-b5c19d67d488/6bacd9ba-ac8c-4654-85ad-a3b2e6b1883b"
      (reference "U405") (unit 1) (value "EL3H7") (footprint "Package_SO:SO-4_4.4x2.3mm_P1.27mm")
    )
    (path "/2128cd6a-874b-4c20-bf4b-b5c19d67d488/5309887c-4763-4f8e-966c-684a34469b1d"
      (reference "U406") (unit 1) (value "EL3H7") (footprint "Package_SO:SO-4_4.4x2.3mm_P1.27mm")
    )
    (path "/2128cd6a-874b-4c20-bf4b-b5c19d67d488/1a0ccfa5-43a3-4a3f-befa-e381b6287018"
      (reference "U407") (unit 1) (value "EL3H7") (footprint "Package_SO:SO-4_4.4x2.3mm_P1.27mm")
    )
    (path "/2128cd6a-874b-4c20-bf4b-b5c19d67d488/f9fccaad-e021-4da9-8aa7-bd0d748285be"
      (reference "U408") (unit 1) (value "EL3H7") (footprint "Package_SO:SO-4_4.4x2.3mm_P1.27mm")
    )
    (path "/2128cd6a-874b-4c20-bf4b-b5c19d67d488/397d1485-1147-4ecb-b1ee-64bfece216d7"
      (reference "U409") (unit 1) (value "EL3H7") (footprint "Package_SO:SO-4_4.4x2.3mm_P1.27mm")
    )
    (path "/2128cd6a-874b-4c20-bf4b-b5c19d67d488/3c5fbc36-33db-4f72-bdba-25db244424ea"
      (reference "U410") (unit 1) (value "EL3H7") (footprint "Package_SO:SO-4_4.4x2.3mm_P1.27mm")
    )
    (path "/2128cd6a-874b-4c20-bf4b-b5c19d67d488/8312d39a-9462-4149-aabb-2498eb62ef87"
      (reference "U411") (unit 1) (value "EL3H7") (footprint "Package_SO:SO-4_4.4x2.3mm_P1.27mm")
    )
    (path "/2128cd6a-874b-4c20-bf4b-b5c19d67d488/f70e56d3-0d64-4a5e-aa97-b20b6d355d20"
      (reference "U412") (unit 1) (value "EL3H7") (footprint "Package_SO:SO-4_4.4x2.3mm_P1.27mm")
    )
    (path "/2128cd6a-874b-4c20-bf4b-b5c19d67d488/6bd158e8-dcad-4b4e-8856-a95af6bd3e65"
      (reference "U413") (unit 1) (value "MCP23017_SO") (footprint "Package_DIP:DIP-28_W7.62mm")
    )
    (path "/efacf41c-d4be-435c-b693-d66309fda1a5/2ea0ed03-dfbf-4a41-90ab-62a9935233e7"
      (reference "U501") (unit 1) (value "TPS5430DDA") (footprint "Package_SO:TI_SO-PowerPAD-8_ThermalVias")
    )
    (path "/db199a83-944d-41ec-bbed-2b8082a8e54e/213e89b5-88b3-40d2-8968-686da6967de9"
      (reference "Y201") (unit 1) (value "25Mhz") (footprint "Crystal:Crystal_SMD_3225-4Pin_3.2x2.5mm")
    )
  )
)
