(footprint "WE74990111211" (version 20211014) (generator pcbnew)
  (layer "F.Cu")
  (tedit 0)
  (attr through_hole)
  (fp_text reference "REF**" (at 6 12.25 unlocked) (layer "F.SilkS")
    (effects (font (size 1 1) (thickness 0.15)))
    (tstamp 52e1058a-a84e-40ec-b420-1423f0d28a75)
  )
  (fp_text value "WE74990111211" (at 0 14.25 unlocked) (layer "F.Fab")
    (effects (font (size 1 1) (thickness 0.15)))
    (tstamp 43c97656-1824-4023-8db9-015af3ab289e)
  )
  (fp_text user "${REFERENCE}" (at -5.5 12.25 unlocked) (layer "F.Fab")
    (effects (font (size 1 1) (thickness 0.15)))
    (tstamp fc308780-3fa4-4c9a-b9f1-adacd41c3bd2)
  )
  (fp_line (start -8 11.5) (end -8 4.5) (layer "F.SilkS") (width 0.12) (tstamp 5e890296-42c3-4b6d-a0d2-588adf3e3f04))
  (fp_line (start -8 1.5) (end -8 -11) (layer "F.SilkS") (width 0.12) (tstamp 72f26197-103a-498f-bdf1-57f03f78a091))
  (fp_line (start 8 4.5) (end 8 11) (layer "F.SilkS") (width 0.12) (tstamp 8facba0e-404f-484b-86e9-c9581c037df6))
  (fp_line (start 8 11) (end -8 11) (layer "F.SilkS") (width 0.12) (tstamp cbb0c40d-1d4c-4727-9f43-b678dc1d4c36))
  (fp_line (start 8 -11) (end 8 1.5) (layer "F.SilkS") (width 0.12) (tstamp e0dcc97b-cd0c-49a5-8528-567ceab8915b))
  (fp_line (start -8 -11) (end 8 -11) (layer "F.SilkS") (width 0.12) (tstamp e3c86e05-89bd-4212-8481-16f345368a9e))
  (fp_circle (center 5.715 0) (end 7.34 0) (layer "Edge.Cuts") (width 0.12) (fill none) (tstamp d9167741-46e9-4969-bb78-1c723dfa33bf))
  (fp_circle (center -5.715 0) (end -4.09 0) (layer "Edge.Cuts") (width 0.12) (fill none) (tstamp e417124f-52e5-4f74-a650-961f145cea1d))
  (pad "1" thru_hole circle (at 4.44 6.35) (size 1.524 1.524) (drill 0.89) (layers *.Cu *.Mask) (tstamp bd915335-998c-4ece-9c4f-3336eb0cf248))
  (pad "2" thru_hole circle (at 3.18 8.89) (size 1.524 1.524) (drill 0.89) (layers *.Cu *.Mask) (tstamp 6e430e37-7ac4-4f03-b8d6-2c663a2a9b2a))
  (pad "3" thru_hole circle (at 1.9 6.35) (size 1.524 1.524) (drill 0.89) (layers *.Cu *.Mask) (tstamp 075c0083-1036-4201-a6a6-6dcfc55b5bc9))
  (pad "4" thru_hole circle (at 0.64 8.89) (size 1.524 1.524) (drill 0.89) (layers *.Cu *.Mask) (tstamp 697bc216-4cd7-4988-9a31-b2a383b793c4))
  (pad "5" thru_hole circle (at -0.64 6.35) (size 1.524 1.524) (drill 0.89) (layers *.Cu *.Mask) (tstamp 7edb2f6a-57f3-4ee0-93d9-41dc3f261c4c))
  (pad "6" thru_hole circle (at -1.9 8.89) (size 1.524 1.524) (drill 0.89) (layers *.Cu *.Mask) (tstamp 3ef38d53-6da0-45be-95eb-aea4a8303d9e))
  (pad "7" thru_hole circle (at -3.18 6.35) (size 1.524 1.524) (drill 0.89) (layers *.Cu *.Mask) (tstamp e6f76c3f-07fb-4abe-94e9-a390f0132e38))
  (pad "8" thru_hole circle (at -4.44 8.89) (size 1.524 1.524) (drill 0.89) (layers *.Cu *.Mask) (tstamp 5f974223-54b0-451b-b696-a37f2547db86))
  (pad "9" thru_hole circle (at 6.625 -4.08) (size 1.8 1.8) (drill 1.02) (layers *.Cu *.Mask) (tstamp 2bbcd688-c713-49b1-b461-3b30af8b6f2f))
  (pad "10" thru_hole circle (at 4.085 -4.08) (size 1.8 1.8) (drill 1.02) (layers *.Cu *.Mask) (tstamp 1e5e8c82-c656-49f3-952e-8d516390e7e4))
  (pad "11" thru_hole circle (at -4.085 -4.08) (size 1.8 1.8) (drill 1.02) (layers *.Cu *.Mask) (tstamp e80cff32-a262-497c-b723-ce152c86f4bd))
  (pad "12" thru_hole circle (at -6.625 -4.08) (size 1.8 1.8) (drill 1.02) (layers *.Cu *.Mask) (tstamp d9f52537-653a-4dee-8cc2-cc5470eae6c3))
  (pad "SH" thru_hole circle (at -7.75 3.03) (size 2.4 2.4) (drill 1.63) (layers *.Cu *.Mask) (tstamp 492d4ccd-3ec4-4109-a693-4c18fc15f796))
  (pad "SH" thru_hole circle (at 7.75 3.03) (size 2.4 2.4) (drill 1.63) (layers *.Cu *.Mask) (tstamp 7a20eed4-0de7-4ded-ba09-88dcb5f209dd))
  (model "${KIPRJMOD}/3D/WE-LAN-74990111211.stp"
    (offset (xyz 0 0 7))
    (scale (xyz 1 1 1))
    (rotate (xyz 180 0 -90))
  )
)
